{
    "apiVersion": "v1",
    "items": [
        {
            "apiVersion": "v1",
            "kind": "ServiceAccount",
            "metadata": {
                "creationTimestamp": "2023-01-10T02:33:23Z",
                "name": "default",
                "namespace": "default",
                "resourceVersion": "325",
                "uid": "ed1a01af-98a5-412f-a726-57540bf11255"
            }
        },
        {
            "apiVersion": "v1",
            "kind": "ServiceAccount",
            "metadata": {
                "creationTimestamp": "2023-01-10T02:49:45Z",
                "name": "netology",
                "namespace": "default",
                "resourceVersion": "2173",
                "uid": "84e1eeb6-7f11-469f-8d90-3dd24ceb1a4c"
            }
        }
    ],
    "kind": "List",
    "metadata": {
        "resourceVersion": ""
    }
}
